#
# There is insufficient memory for the Java Runtime Environment to continue.
# Native memory allocation (malloc) failed to allocate 233728 bytes for Chunk::new
# Possible reasons:
#   The system is out of physical RAM or swap space
#   The process is running with CompressedOops enabled, and the Java Heap may be blocking the growth of the native heap
# Possible solutions:
#   Reduce memory load on the system
#   Increase physical memory or swap space
#   Check if swap backing store is full
#   Decrease Java heap size (-Xmx/-Xms)
#   Decrease number of Java threads
#   Decrease Java thread stack sizes (-Xss)
#   Set larger code cache with -XX:ReservedCodeCacheSize=
#   JVM is running with Unscaled Compressed Oops mode in which the Java heap is
#     placed in the first 4GB address space. The Java Heap base address is the
#     maximum limit for the native heap growth. Please use -XX:HeapBaseMinAddress
#     to set the Java Heap base and to place the Java Heap above 4GB virtual address.
# This output file may be truncated or incomplete.
#
#  Out of Memory Error (allocation.cpp:389), pid=24560, tid=0x000000000000424c
#
# JRE version: OpenJDK Runtime Environment (8.0) (build 1.8.0-25-microsoft-b00)
# Java VM: OpenJDK 64-Bit Server VM (25.71-b00 mixed mode windows-amd64 compressed oops)
# Failed to write core dump. Minidumps are not enabled by default on client versions of Windows
#

---------------  T H R E A D  ---------------

Current thread (0x000000001588c000):  JavaThread "C2 CompilerThread0" daemon [_thread_in_native, id=16972, stack(0x0000000016ef0000,0x0000000016ff0000)]

Stack: [0x0000000016ef0000,0x0000000016ff0000]
[error occurred during error reporting (printing stack bounds), id 0xc0000005]

Native frames: (J=compiled Java code, j=interpreted, Vv=VM code, C=native code)


Current CompileTask:
C2:   4529 2596 %     4       com.android.dx.ssa.SCCP::run @ 133 (298 bytes)


---------------  P R O C E S S  ---------------

Java Threads: ( => current thread )
  0x000000001746c000 JavaThread "pool-2-thread-1" [_thread_blocked, id=18660, stack(0x00000000180f0000,0x00000000181f0000)]
  0x000000001751b800 JavaThread "pool-1-thread-1" [_thread_in_Java, id=11488, stack(0x0000000017ff0000,0x00000000180f0000)]
  0x0000000017224800 JavaThread "Service Thread" daemon [_thread_blocked, id=16852, stack(0x00000000175f0000,0x00000000176f0000)]
  0x0000000015896000 JavaThread "C1 CompilerThread2" daemon [_thread_blocked, id=22532, stack(0x00000000170f0000,0x00000000171f0000)]
  0x000000001588f800 JavaThread "C2 CompilerThread1" daemon [_thread_in_native, id=13852, stack(0x0000000016ff0000,0x00000000170f0000)]
=>0x000000001588c000 JavaThread "C2 CompilerThread0" daemon [_thread_in_native, id=16972, stack(0x0000000016ef0000,0x0000000016ff0000)]
  0x000000001589b000 JavaThread "Attach Listener" daemon [_thread_blocked, id=23548, stack(0x0000000016df0000,0x0000000016ef0000)]
  0x000000001589a000 JavaThread "Signal Dispatcher" daemon [_thread_blocked, id=20048, stack(0x0000000016cf0000,0x0000000016df0000)]
  0x00000000031bc000 JavaThread "Finalizer" daemon [_thread_blocked, id=23724, stack(0x0000000016af0000,0x0000000016bf0000)]
  0x00000000031b2000 JavaThread "Reference Handler" daemon [_thread_blocked, id=12584, stack(0x00000000169f0000,0x0000000016af0000)]
  0x00000000030c2800 JavaThread "main" [_thread_in_Java, id=4920, stack(0x0000000002ed0000,0x0000000002fd0000)]

Other Threads:
  0x0000000015856000 VMThread [stack: 0x00000000168f0000,0x00000000169f0000] [id=11008]
  0x0000000017225000 WatcherThread [stack: 0x00000000176f0000,0x00000000177f0000] [id=2708]

VM state:not at safepoint (normal execution)

VM Mutex/Monitor currently owned by a thread: None

heap address: 0x00000000c0000000, size: 1024 MB, Compressed Oops mode: 32-bit
Narrow klass base: 0x0000000000000000, Narrow klass shift: 3
Compressed class space size: 1073741824 Address: 0x0000000100000000

Heap:
 PSYoungGen      total 140800K, used 78000K [0x00000000eab00000, 0x00000000f3f00000, 0x0000000100000000)
  eden space 130048K, 51% used [0x00000000eab00000,0x00000000eecb28e8,0x00000000f2a00000)
  from space 10752K, 99% used [0x00000000f2a00000,0x00000000f34797e0,0x00000000f3480000)
  to   space 10752K, 0% used [0x00000000f3480000,0x00000000f3480000,0x00000000f3f00000)
 ParOldGen       total 173568K, used 119540K [0x00000000c0000000, 0x00000000ca980000, 0x00000000eab00000)
  object space 173568K, 68% used [0x00000000c0000000,0x00000000c74bd0d0,0x00000000ca980000)
 Metaspace       used 6516K, capacity 7216K, committed 7296K, reserved 1056768K
  class space    used 596K, capacity 616K, committed 640K, reserved 1048576K

Card table byte_map: [0x0000000012580000,0x0000000012790000] byte_map_base: 0x0000000011f80000

Marking Bits: (ParMarkBitMap*) 0x0000000061138f30
 Begin Bits: [0x0000000012cf0000, 0x0000000013cf0000)
 End Bits:   [0x0000000013cf0000, 0x0000000014cf0000)

Polling page: 0x00000000010b0000

CodeCache: size=245760Kb used=11435Kb max_used=11435Kb free=234324Kb
 bounds [0x00000000031c0000, 0x0000000003d00000, 0x00000000121c0000]
 total_blobs=2816 nmethods=2545 adapters=184
 compilation: enabled

Compilation events (10 events):
Event: 4.499 Thread 0x0000000015896000 2612       2       java.util.concurrent.TimeUnit::x (27 bytes)
Event: 4.499 Thread 0x0000000015896000 nmethod 2612 0x0000000003cc3c50 code [0x0000000003cc3da0, 0x0000000003cc3f10]
Event: 4.500 Thread 0x0000000015896000 2613       2       java.nio.file.attribute.FileTime::toMillis (98 bytes)
Event: 4.501 Thread 0x0000000015896000 nmethod 2613 0x0000000003cc35d0 code [0x0000000003cc3760, 0x0000000003cc3aa8]
Event: 4.501 Thread 0x0000000015896000 2614       2       java.util.concurrent.TimeUnit$4::toMillis (11 bytes)
Event: 4.501 Thread 0x0000000015896000 nmethod 2614 0x0000000003cc2590 code [0x0000000003cc26e0, 0x0000000003cc2890]
Event: 4.520 Thread 0x0000000015896000 2616       1       com.android.dx.dex.code.DalvInsn::getOpcode (5 bytes)
Event: 4.520 Thread 0x0000000015896000 nmethod 2616 0x0000000003cc3310 code [0x0000000003cc3460, 0x0000000003cc3570]
Event: 4.520 Thread 0x0000000015896000 2617       1       com.android.dx.dex.code.DalvInsn::getRegisters (5 bytes)
Event: 4.520 Thread 0x0000000015896000 nmethod 2617 0x0000000003cc22d0 code [0x0000000003cc2420, 0x0000000003cc2530]

GC Heap History (10 events):
Event: 1.870 GC heap before
{Heap before GC invocations=3 (full 0):
 PSYoungGen      total 140800K, used 140781K [0x00000000eab00000, 0x00000000f3f00000, 0x0000000100000000)
  eden space 130048K, 100% used [0x00000000eab00000,0x00000000f2a00000,0x00000000f2a00000)
  from space 10752K, 99% used [0x00000000f3480000,0x00000000f3efb5c8,0x00000000f3f00000)
  to   space 10752K, 0% used [0x00000000f2a00000,0x00000000f2a00000,0x00000000f3480000)
 ParOldGen       total 173568K, used 16530K [0x00000000c0000000, 0x00000000ca980000, 0x00000000eab00000)
  object space 173568K, 9% used [0x00000000c0000000,0x00000000c10248e8,0x00000000ca980000)
 Metaspace       used 6223K, capacity 7024K, committed 7296K, reserved 1056768K
  class space    used 582K, capacity 616K, committed 640K, reserved 1048576K
Event: 1.912 GC heap after
Heap after GC invocations=3 (full 0):
 PSYoungGen      total 140800K, used 10730K [0x00000000eab00000, 0x00000000f3f00000, 0x0000000100000000)
  eden space 130048K, 0% used [0x00000000eab00000,0x00000000eab00000,0x00000000f2a00000)
  from space 10752K, 99% used [0x00000000f2a00000,0x00000000f347abd8,0x00000000f3480000)
  to   space 10752K, 0% used [0x00000000f3480000,0x00000000f3480000,0x00000000f3f00000)
 ParOldGen       total 173568K, used 39945K [0x00000000c0000000, 0x00000000ca980000, 0x00000000eab00000)
  object space 173568K, 23% used [0x00000000c0000000,0x00000000c27027c0,0x00000000ca980000)
 Metaspace       used 6223K, capacity 7024K, committed 7296K, reserved 1056768K
  class space    used 582K, capacity 616K, committed 640K, reserved 1048576K
}
Event: 2.460 GC heap before
{Heap before GC invocations=4 (full 0):
 PSYoungGen      total 140800K, used 140778K [0x00000000eab00000, 0x00000000f3f00000, 0x0000000100000000)
  eden space 130048K, 100% used [0x00000000eab00000,0x00000000f2a00000,0x00000000f2a00000)
  from space 10752K, 99% used [0x00000000f2a00000,0x00000000f347abd8,0x00000000f3480000)
  to   space 10752K, 0% used [0x00000000f3480000,0x00000000f3480000,0x00000000f3f00000)
 ParOldGen       total 173568K, used 39945K [0x00000000c0000000, 0x00000000ca980000, 0x00000000eab00000)
  object space 173568K, 23% used [0x00000000c0000000,0x00000000c27027c0,0x00000000ca980000)
 Metaspace       used 6426K, capacity 7152K, committed 7296K, reserved 1056768K
  class space    used 596K, capacity 616K, committed 640K, reserved 1048576K
Event: 2.495 GC heap after
Heap after GC invocations=4 (full 0):
 PSYoungGen      total 140800K, used 10725K [0x00000000eab00000, 0x00000000f3f00000, 0x0000000100000000)
  eden space 130048K, 0% used [0x00000000eab00000,0x00000000eab00000,0x00000000f2a00000)
  from space 10752K, 99% used [0x00000000f3480000,0x00000000f3ef9790,0x00000000f3f00000)
  to   space 10752K, 0% used [0x00000000f2a00000,0x00000000f2a00000,0x00000000f3480000)
 ParOldGen       total 173568K, used 60746K [0x00000000c0000000, 0x00000000ca980000, 0x00000000eab00000)
  object space 173568K, 34% used [0x00000000c0000000,0x00000000c3b52bb8,0x00000000ca980000)
 Metaspace       used 6426K, capacity 7152K, committed 7296K, reserved 1056768K
  class space    used 596K, capacity 616K, committed 640K, reserved 1048576K
}
Event: 3.096 GC heap before
{Heap before GC invocations=5 (full 0):
 PSYoungGen      total 140800K, used 140773K [0x00000000eab00000, 0x00000000f3f00000, 0x0000000100000000)
  eden space 130048K, 100% used [0x00000000eab00000,0x00000000f2a00000,0x00000000f2a00000)
  from space 10752K, 99% used [0x00000000f3480000,0x00000000f3ef9790,0x00000000f3f00000)
  to   space 10752K, 0% used [0x00000000f2a00000,0x00000000f2a00000,0x00000000f3480000)
 ParOldGen       total 173568K, used 60746K [0x00000000c0000000, 0x00000000ca980000, 0x00000000eab00000)
  object space 173568K, 34% used [0x00000000c0000000,0x00000000c3b52bb8,0x00000000ca980000)
 Metaspace       used 6460K, capacity 7216K, committed 7296K, reserved 1056768K
  class space    used 596K, capacity 616K, committed 640K, reserved 1048576K
Event: 3.165 GC heap after
Heap after GC invocations=5 (full 0):
 PSYoungGen      total 140800K, used 10749K [0x00000000eab00000, 0x00000000f3f00000, 0x0000000100000000)
  eden space 130048K, 0% used [0x00000000eab00000,0x00000000eab00000,0x00000000f2a00000)
  from space 10752K, 99% used [0x00000000f2a00000,0x00000000f347f4b8,0x00000000f3480000)
  to   space 10752K, 0% used [0x00000000f3480000,0x00000000f3480000,0x00000000f3f00000)
 ParOldGen       total 173568K, used 80481K [0x00000000c0000000, 0x00000000ca980000, 0x00000000eab00000)
  object space 173568K, 46% used [0x00000000c0000000,0x00000000c4e985d0,0x00000000ca980000)
 Metaspace       used 6460K, capacity 7216K, committed 7296K, reserved 1056768K
  class space    used 596K, capacity 616K, committed 640K, reserved 1048576K
}
Event: 3.564 GC heap before
{Heap before GC invocations=6 (full 0):
 PSYoungGen      total 140800K, used 140797K [0x00000000eab00000, 0x00000000f3f00000, 0x0000000100000000)
  eden space 130048K, 100% used [0x00000000eab00000,0x00000000f2a00000,0x00000000f2a00000)
  from space 10752K, 99% used [0x00000000f2a00000,0x00000000f347f4b8,0x00000000f3480000)
  to   space 10752K, 0% used [0x00000000f3480000,0x00000000f3480000,0x00000000f3f00000)
 ParOldGen       total 173568K, used 80481K [0x00000000c0000000, 0x00000000ca980000, 0x00000000eab00000)
  object space 173568K, 46% used [0x00000000c0000000,0x00000000c4e985d0,0x00000000ca980000)
 Metaspace       used 6480K, capacity 7216K, committed 7296K, reserved 1056768K
  class space    used 596K, capacity 616K, committed 640K, reserved 1048576K
Event: 3.621 GC heap after
Heap after GC invocations=6 (full 0):
 PSYoungGen      total 140800K, used 10732K [0x00000000eab00000, 0x00000000f3f00000, 0x0000000100000000)
  eden space 130048K, 0% used [0x00000000eab00000,0x00000000eab00000,0x00000000f2a00000)
  from space 10752K, 99% used [0x00000000f3480000,0x00000000f3efb1d0,0x00000000f3f00000)
  to   space 10752K, 0% used [0x00000000f2a00000,0x00000000f2a00000,0x00000000f3480000)
 ParOldGen       total 173568K, used 99897K [0x00000000c0000000, 0x00000000ca980000, 0x00000000eab00000)
  object space 173568K, 57% used [0x00000000c0000000,0x00000000c618e740,0x00000000ca980000)
 Metaspace       used 6480K, capacity 7216K, committed 7296K, reserved 1056768K
  class space    used 596K, capacity 616K, committed 640K, reserved 1048576K
}
Event: 4.153 GC heap before
{Heap before GC invocations=7 (full 0):
 PSYoungGen      total 140800K, used 140780K [0x00000000eab00000, 0x00000000f3f00000, 0x0000000100000000)
  eden space 130048K, 100% used [0x00000000eab00000,0x00000000f2a00000,0x00000000f2a00000)
  from space 10752K, 99% used [0x00000000f3480000,0x00000000f3efb1d0,0x00000000f3f00000)
  to   space 10752K, 0% used [0x00000000f2a00000,0x00000000f2a00000,0x00000000f3480000)
 ParOldGen       total 173568K, used 99897K [0x00000000c0000000, 0x00000000ca980000, 0x00000000eab00000)
  object space 173568K, 57% used [0x00000000c0000000,0x00000000c618e740,0x00000000ca980000)
 Metaspace       used 6505K, capacity 7216K, committed 7296K, reserved 1056768K
  class space    used 596K, capacity 616K, committed 640K, reserved 1048576K
Event: 4.229 GC heap after
Heap after GC invocations=7 (full 0):
 PSYoungGen      total 140800K, used 10725K [0x00000000eab00000, 0x00000000f3f00000, 0x0000000100000000)
  eden space 130048K, 0% used [0x00000000eab00000,0x00000000eab00000,0x00000000f2a00000)
  from space 10752K, 99% used [0x00000000f2a00000,0x00000000f34797e0,0x00000000f3480000)
  to   space 10752K, 0% used [0x00000000f3480000,0x00000000f3480000,0x00000000f3f00000)
 ParOldGen       total 173568K, used 119540K [0x00000000c0000000, 0x00000000ca980000, 0x00000000eab00000)
  object space 173568K, 68% used [0x00000000c0000000,0x00000000c74bd0d0,0x00000000ca980000)
 Metaspace       used 6505K, capacity 7216K, committed 7296K, reserved 1056768K
  class space    used 596K, capacity 616K, committed 640K, reserved 1048576K
}

Deoptimization events (10 events):
Event: 3.785 Thread 0x00000000030c2800 Uncommon trap: reason=unstable_if action=reinterpret pc=0x0000000003c08f40 method=com.android.dx.ssa.SsaRenamer$BlockRenamer.process()V @ 90
Event: 3.814 Thread 0x00000000030c2800 Uncommon trap: reason=unstable_if action=reinterpret pc=0x000000000332379c method=java.util.regex.Pattern$BnM.match(Ljava/util/regex/Matcher;ILjava/lang/CharSequence;)Z @ 34
Event: 4.146 Thread 0x000000001751b800 Uncommon trap: reason=unstable_if action=reinterpret pc=0x0000000003946cd0 method=com.android.dx.ssa.back.FirstFitLocalCombiningAllocator.findNextUnreservedRopReg(IILcom/android/dx/ssa/back/FirstFitLocalCombiningAllocator$Alignment;)I @ 44
Event: 4.237 Thread 0x000000001751b800 Uncommon trap: reason=unstable_if action=reinterpret pc=0x00000000038ef3c8 method=java.util.BitSet.nextClearBit(I)I @ 70
Event: 4.242 Thread 0x000000001751b800 Uncommon trap: reason=unstable_if action=reinterpret pc=0x00000000038f0318 method=java.util.BitSet.set(II)V @ 48
Event: 4.319 Thread 0x000000001751b800 Uncommon trap: reason=unstable_if action=reinterpret pc=0x0000000003ce0fc0 method=com.android.dx.ssa.NormalSsaInsn.getLocalAssignment()Lcom/android/dx/rop/code/RegisterSpec; @ 12
Event: 4.371 Thread 0x00000000030c2800 Uncommon trap: reason=bimorphic action=maybe_recompile pc=0x0000000003ce5494 method=com.android.dx.ssa.NormalSsaInsn.accept(Lcom/android/dx/ssa/SsaInsn$Visitor;)V @ 9
Event: 4.372 Thread 0x00000000030c2800 Uncommon trap: reason=bimorphic action=maybe_recompile pc=0x0000000003ce5494 method=com.android.dx.ssa.NormalSsaInsn.accept(Lcom/android/dx/ssa/SsaInsn$Visitor;)V @ 9
Event: 4.372 Thread 0x00000000030c2800 Uncommon trap: reason=bimorphic action=maybe_recompile pc=0x0000000003ce5494 method=com.android.dx.ssa.NormalSsaInsn.accept(Lcom/android/dx/ssa/SsaInsn$Visitor;)V @ 9
Event: 4.372 Thread 0x00000000030c2800 Uncommon trap: reason=bimorphic action=maybe_recompile pc=0x0000000003ce5494 method=com.android.dx.ssa.NormalSsaInsn.accept(Lcom/android/dx/ssa/SsaInsn$Visitor;)V @ 9

Classes redefined (0 events):
No events

Internal exceptions (7 events):
Event: 0.027 Thread 0x00000000030c2800 Exception <a 'java/lang/NoSuchMethodError': Method sun.misc.Unsafe.defineClass(Ljava/lang/String;[BII)Ljava/lang/Class; name or signature does not match> (0x00000000eab07cb0) thrown at [D:\j\worksp~1\openjd~3\jdk8u\hotspot\src\share\vm\prims\jni.cpp, line
Event: 0.027 Thread 0x00000000030c2800 Exception <a 'java/lang/NoSuchMethodError': Method sun.misc.Unsafe.prefetchRead(Ljava/lang/Object;J)V name or signature does not match> (0x00000000eab07f98) thrown at [D:\j\worksp~1\openjd~3\jdk8u\hotspot\src\share\vm\prims\jni.cpp, line 4012]
Event: 1.799 Thread 0x000000001751b800 Exception <a 'java/lang/ArrayIndexOutOfBoundsException': 18> (0x00000000f248b2b0) thrown at [D:\j\worksp~1\openjd~3\jdk8u\hotspot\src\share\vm\interpreter\interpreterRuntime.cpp, line 368]
Event: 1.799 Thread 0x000000001751b800 Exception <a 'java/lang/ArrayIndexOutOfBoundsException': 145> (0x00000000f248ce30) thrown at [D:\j\worksp~1\openjd~3\jdk8u\hotspot\src\share\vm\interpreter\interpreterRuntime.cpp, line 368]
Event: 1.800 Thread 0x000000001751b800 Exception <a 'java/lang/ArrayIndexOutOfBoundsException': 40> (0x00000000f248e118) thrown at [D:\j\worksp~1\openjd~3\jdk8u\hotspot\src\share\vm\interpreter\interpreterRuntime.cpp, line 368]
Event: 2.336 Thread 0x000000001751b800 Implicit null exception at 0x0000000003877be2 to 0x0000000003877cda
Event: 3.661 Thread 0x00000000030c2800 Implicit null exception at 0x0000000003bc2bf3 to 0x0000000003bc59c5

Events (10 events):
Event: 4.372 Thread 0x00000000030c2800 DEOPT PACKING pc=0x0000000003ce5494 sp=0x0000000002fce080
Event: 4.372 Thread 0x00000000030c2800 DEOPT UNPACKING pc=0x000000000320557b sp=0x0000000002fce040 mode 2
Event: 4.372 Thread 0x00000000030c2800 Uncommon trap: trap_request=0xffffffc6 fr.pc=0x0000000003ce5494
Event: 4.372 Thread 0x00000000030c2800 DEOPT PACKING pc=0x0000000003ce5494 sp=0x0000000002fce270
Event: 4.372 Thread 0x00000000030c2800 DEOPT UNPACKING pc=0x000000000320557b sp=0x0000000002fce230 mode 2
Event: 4.372 Thread 0x00000000030c2800 Uncommon trap: trap_request=0xffffffc6 fr.pc=0x0000000003ce5494
Event: 4.372 Thread 0x00000000030c2800 DEOPT PACKING pc=0x0000000003ce5494 sp=0x0000000002fce370
Event: 4.372 Thread 0x00000000030c2800 DEOPT UNPACKING pc=0x000000000320557b sp=0x0000000002fce330 mode 2
Event: 4.414 Thread 0x000000001751b800 DEOPT PACKING pc=0x0000000003c44485 sp=0x00000000180ee910
Event: 4.414 Thread 0x000000001751b800 DEOPT UNPACKING pc=0x00000000032075d0 sp=0x00000000180ee6a0 mode 0


Dynamic libraries:
0x00007ff7887c0000 - 0x00007ff7887f5000 	C:\Program Files\Android\jdk\microsoft_dist_openjdk_1.8.0.25\bin\java.exe
0x00007fffddb60000 - 0x00007fffddd4d000 	C:\WINDOWS\SYSTEM32\ntdll.dll
0x00007fffdbd80000 - 0x00007fffdbe33000 	C:\WINDOWS\System32\KERNEL32.DLL
0x00007fffd9f60000 - 0x00007fffda1f3000 	C:\WINDOWS\System32\KERNELBASE.dll
0x00007fffdbb90000 - 0x00007fffdbc33000 	C:\WINDOWS\System32\ADVAPI32.dll
0x00007fffdc3c0000 - 0x00007fffdc45e000 	C:\WINDOWS\System32\msvcrt.dll
0x00007fffdc460000 - 0x00007fffdc4fe000 	C:\WINDOWS\System32\sechost.dll
0x00007fffdb680000 - 0x00007fffdb7a2000 	C:\WINDOWS\System32\RPCRT4.dll
0x00007fffdbee0000 - 0x00007fffdc077000 	C:\WINDOWS\System32\USER32.dll
0x00007fffd9c20000 - 0x00007fffd9c40000 	C:\WINDOWS\System32\win32u.dll
0x00007fffdb7b0000 - 0x00007fffdb7d9000 	C:\WINDOWS\System32\GDI32.dll
0x00007fffd9cc0000 - 0x00007fffd9e59000 	C:\WINDOWS\System32\gdi32full.dll
0x00007fffda3b0000 - 0x00007fffda450000 	C:\WINDOWS\System32\msvcp_win.dll
0x00007fffd9e60000 - 0x00007fffd9f5a000 	C:\WINDOWS\System32\ucrtbase.dll
0x00007fffc6a70000 - 0x00007fffc6ce9000 	C:\WINDOWS\WinSxS\amd64_microsoft.windows.common-controls_6595b64144ccf1df_6.0.17763.1098_none_de762ed45346ee8a\COMCTL32.dll
0x00007fffdc080000 - 0x00007fffdc3ac000 	C:\WINDOWS\System32\combase.dll
0x00007fffd9c40000 - 0x00007fffd9cbe000 	C:\WINDOWS\System32\bcryptPrimitives.dll
0x00007fffdb200000 - 0x00007fffdb22e000 	C:\WINDOWS\System32\IMM32.DLL
0x00000000611c0000 - 0x0000000061291000 	C:\Program Files\Android\jdk\microsoft_dist_openjdk_1.8.0.25\jre\bin\msvcr100.dll
0x0000000060970000 - 0x00000000611b5000 	C:\Program Files\Android\jdk\microsoft_dist_openjdk_1.8.0.25\jre\bin\server\jvm.dll
0x00007fffdba00000 - 0x00007fffdba08000 	C:\WINDOWS\System32\PSAPI.DLL
0x00007fffd72e0000 - 0x00007fffd72e9000 	C:\WINDOWS\SYSTEM32\WSOCK32.dll
0x00007fffd4880000 - 0x00007fffd48a4000 	C:\WINDOWS\SYSTEM32\WINMM.dll
0x00007fffd26c0000 - 0x00007fffd26ca000 	C:\WINDOWS\SYSTEM32\VERSION.dll
0x00007fffdb7e0000 - 0x00007fffdb84d000 	C:\WINDOWS\System32\WS2_32.dll
0x00007fffd4850000 - 0x00007fffd487d000 	C:\WINDOWS\SYSTEM32\winmmbase.dll
0x00007fffda230000 - 0x00007fffda27a000 	C:\WINDOWS\System32\cfgmgr32.dll
0x00007fffd72d0000 - 0x00007fffd72df000 	C:\Program Files\Android\jdk\microsoft_dist_openjdk_1.8.0.25\jre\bin\verify.dll
0x00007fffd5230000 - 0x00007fffd5259000 	C:\Program Files\Android\jdk\microsoft_dist_openjdk_1.8.0.25\jre\bin\java.dll
0x00007fffd5210000 - 0x00007fffd5226000 	C:\Program Files\Android\jdk\microsoft_dist_openjdk_1.8.0.25\jre\bin\zip.dll
0x00007fffdc500000 - 0x00007fffdd9f4000 	C:\WINDOWS\System32\SHELL32.dll
0x00007fffdb470000 - 0x00007fffdb518000 	C:\WINDOWS\System32\shcore.dll
0x00007fffda630000 - 0x00007fffdad7d000 	C:\WINDOWS\System32\windows.storage.dll
0x00007fffd9bd0000 - 0x00007fffd9bf4000 	C:\WINDOWS\System32\profapi.dll
0x00007fffd9b70000 - 0x00007fffd9bcd000 	C:\WINDOWS\System32\powrprof.dll
0x00007fffdba80000 - 0x00007fffdbad2000 	C:\WINDOWS\System32\shlwapi.dll
0x00007fffd9c00000 - 0x00007fffd9c11000 	C:\WINDOWS\System32\kernel.appcore.dll
0x00007fffda2e0000 - 0x00007fffda2f7000 	C:\WINDOWS\System32\cryptsp.dll

VM Arguments:
jvm_args: -Xmx1G 
java_command: C:\Program Files (x86)\Android\android-sdk\build-tools\25.0.3\\lib\dx.jar --dex --no-strict --output obj\Debug\81\android\bin C:\PROJECTS\INSCTMIS.MobileApp\INSCTMIS.Mobile\INSCTMIS.Mobile\INSCTMIS.Mobile.Android\obj\Debug\81\android\bin\classes.zip C:\Program Files (x86)\Microsoft Visual Studio\2017\Community\Common7\IDE\ReferenceAssemblies\Microsoft\Framework\MonoAndroid\v8.1\mono.android.jar obj\Debug\81\lp\3\jl\formsviewgroup.jar obj\Debug\81\lp\31\jl\arch-core-common.jar obj\Debug\81\lp\32\jl\arch-lifecycle-common.jar obj\Debug\81\lp\33\jl\bin\classes.jar obj\Debug\81\lp\34\jl\bin\classes.jar obj\Debug\81\lp\36\jl\bin\classes.jar obj\Debug\81\lp\37\jl\bin\classes.jar obj\Debug\81\lp\38\jl\bin\classes.jar obj\Debug\81\lp\39\jl\bin\classes.jar obj\Debug\81\lp\40\jl\bin\classes.jar obj\Debug\81\lp\41\jl\bin\classes.jar obj\Debug\81\lp\42\jl\bin\classes.jar obj\Debug\81\lp\43\jl\bin\classes.jar obj\Debug\81\lp\44\jl\bin\classes.jar obj\Debug\81\lp\45\jl\bin\classes.jar obj\Debug\81\lp\46\jl\bin\classes.jar obj\Debug\81\lp\47\jl\bin\classes.jar obj\Debug\81\lp\48\jl\bin\classes.jar obj\Debug\81\lp\49\jl\bin\classes.jar obj\Debug\81\lp\50\jl\bin\classes.jar C:\Users\Danet Opot\AppData\Local\Xamarin\Xamarin.GooglePlayServices.Base\8.4.0\embedded\classes.jar C:\Users\Danet Opot\AppData\Local\Xamarin\Xamarin.GooglePlayServices.Basement\8.4.0\embedded\classes.jar
java_class_path (initial): C:\Program Files (x86)\Android\android-sdk\build-tools\25.0.3\\lib\dx.jar
Launcher Type: SUN_STANDARD

Environment Variables:
PATH=C:\Program Files\Android\jdk\microsoft_dist_openjdk_1.8.0.25\bin;C:\Program Files (x86)\Common Files\Oracle\Java\javapath;C:\Python27\;C:\Python27\Scripts;C:\Program Files (x86)\Intel\iCLS Client\;C:\Program Files\Intel\iCLS Client\;C:\WINDOWS\system32;C:\WINDOWS;C:\WINDOWS\System32\Wbem;C:\WINDOWS\System32\WindowsPowerShell\v1.0\;C:\Program Files\Git\cmd;C:\PostgreSQL\pg96\bin;C:\Program Files\dotnet\;C:\Program Files\Microsoft SQL Server\130\Tools\Binn\;C:\Program Files (x86)\Microsoft SQL Server\Client SDK\ODBC\130\Tools\Binn\;C:\Program Files (x86)\Microsoft SQL Server\140\Tools\Binn\;C:\Program Files (x86)\Microsoft SQL Server\140\DTS\Binn\;C:\Program Files (x86)\Microsoft SQL Server\140\Tools\Binn\ManagementStudio\;C:\Program Files\Microsoft SQL Server\Client SDK\ODBC\130\Tools\Binn\;C:\Program Files\Microsoft SQL Server\140\Tools\Binn\;C:\Program Files\Microsoft SQL Server\140\DTS\Binn\;C:\WINDOWS\System32\OpenSSH\;C:\Program Files\Azure Data Studio\bin;c:\Program Files (x86)\Microsoft SQL Server\100\Tools\Binn\;c:\Program Files\Microsoft SQL Server\100\Tools\Binn\;c:\Program Files\Microsoft SQL Server\100\DTS\Binn\;C:\Program Files\Microsoft VS Code\bin;C:\Program Files\nodejs\;C:\Program Files (x86)\IDM Computer Solutions\UltraEdit;C:\Users\Danet Opot\AppData\Local\Programs\Python\Python37\Scripts\;C:\Users\Danet Opot\AppData\Local\Programs\Python\Python37\;C:\Users\Danet Opot\AppData\Local\Microsoft\WindowsApps;C:\Users\Danet Opot\.dotnet\tools;C:\Users\Danet Opot\AppData\Local\Microsoft\WindowsApps;C:\Program Files\Azure Data Studio\bin;C:\Program Files\heroku\bin;C:\Android Platform Tools;C:\Users\Danet Opot\AppData\Roaming\npm
USERNAME=Danet Opot
OS=Windows_NT
PROCESSOR_IDENTIFIER=Intel64 Family 6 Model 142 Stepping 9, GenuineIntel



---------------  S Y S T E M  ---------------

OS: Windows 10.0 , 64 bit Build 17763 (10.0.17763.475)

CPU:total 4 (initial active 4) (2 cores per cpu, 2 threads per core) family 6 model 142 stepping 9, cmov, cx8, fxsr, mmx, sse, sse2, sse3, ssse3, sse4.1, sse4.2, popcnt, avx, avx2, aes, clmul, erms, rtm, 3dnowpref, lzcnt, ht, tsc, tscinvbit, bmi1, bmi2, adx

Memory: 4k page, physical 16639196k(4464508k free), swap 18825336k(5556k free)

vm_info: OpenJDK 64-Bit Server VM (25.71-b00) for windows-amd64 JRE (1.8.0-25-microsoft-b00), built on Feb  7 2019 20:09:14 by "builder" with MS VC++ 10.0 (VS2010)

time: Mon Apr 06 19:14:00 2020
timezone: E. Africa Standard Time
elapsed time: 4 seconds (0d 0h 0m 4s)

